^C:\CYGWIN\HOME\CLAUS\HPC\SRC\SCALEWIN\DEBUG\ITERATE1.OBJ|C:\CYGWIN\HOME\CLAUS\HPC\SRC\SCALEWIN\DEBUG\SCALE1.OBJ
C:\WINDOWS\GLOBALIZATION\SORTING\SORTDEFAULT.NLS
C:\WINDOWS\SYSTEM32\TZRES.DLL
C:\CYGWIN\HOME\CLAUS\HPC\SRC\SCALEWIN\DEBUG\ITERATE1.OBJ
C:\CYGWIN\HOME\CLAUS\HPC\SRC\SCALEWIN\DEBUG\SCALE1.OBJ
C:\PROGRA~2\INTELS~1\COMPIL~1\WINDOWS\BIN\INTEL64\MCPCOM.EXE
C:\PROGRAM FILES (X86)\WINDOWS KITS\8.1\LIB\WINV6.3\UM\X86\KERNEL32.LIB
C:\PROGRAM FILES (X86)\WINDOWS KITS\8.1\LIB\WINV6.3\UM\X86\USER32.LIB
C:\PROGRAM FILES (X86)\WINDOWS KITS\8.1\LIB\WINV6.3\UM\X86\GDI32.LIB
C:\PROGRAM FILES (X86)\WINDOWS KITS\8.1\LIB\WINV6.3\UM\X86\WINSPOOL.LIB
C:\PROGRAM FILES (X86)\WINDOWS KITS\8.1\LIB\WINV6.3\UM\X86\COMDLG32.LIB
C:\PROGRAM FILES (X86)\WINDOWS KITS\8.1\LIB\WINV6.3\UM\X86\ADVAPI32.LIB
C:\PROGRAM FILES (X86)\WINDOWS KITS\8.1\LIB\WINV6.3\UM\X86\SHELL32.LIB
C:\PROGRAM FILES (X86)\WINDOWS KITS\8.1\LIB\WINV6.3\UM\X86\OLE32.LIB
C:\PROGRAM FILES (X86)\WINDOWS KITS\8.1\LIB\WINV6.3\UM\X86\OLEAUT32.LIB
C:\PROGRAM FILES (X86)\WINDOWS KITS\8.1\LIB\WINV6.3\UM\X86\UUID.LIB
C:\PROGRAM FILES (X86)\WINDOWS KITS\8.1\LIB\WINV6.3\UM\X86\ODBC32.LIB
C:\PROGRAM FILES (X86)\WINDOWS KITS\8.1\LIB\WINV6.3\UM\X86\ODBCCP32.LIB
C:\PROGRA~2\INTELS~1\COMPIL~1\WINDOWS\BIN\INTEL64_MIC\ICC.EXE
C:\PROGRAM FILES (X86)\MICROSOFT VISUAL STUDIO 12.0\VC\BIN\AMD64_X86\LINK.EXE
C:\PROGRAM FILES (X86)\INTELSWTOOLS\COMPILERS_AND_LIBRARIES_2017\WINDOWS\COMPILER\LIB\IA32_WIN\LIBMMDD.LIB
C:\PROGRAM FILES (X86)\MICROSOFT VISUAL STUDIO 12.0\VC\LIB\MSVCRTD.LIB
C:\PROGRAM FILES (X86)\INTELSWTOOLS\COMPILERS_AND_LIBRARIES_2017\WINDOWS\COMPILER\LIB\IA32_WIN\LIBIRC.LIB
C:\PROGRAM FILES (X86)\INTELSWTOOLS\COMPILERS_AND_LIBRARIES_2017\WINDOWS\COMPILER\LIB\IA32_WIN\SVML_DISPMD.LIB
C:\PROGRAM FILES (X86)\MICROSOFT VISUAL STUDIO 12.0\VC\LIB\OLDNAMES.LIB
C:\PROGRAM FILES (X86)\INTELSWTOOLS\COMPILERS_AND_LIBRARIES_2017\WINDOWS\COMPILER\LIB\IA32_WIN\LIBDECIMAL.LIB
C:\PROGRAM FILES (X86)\WINDOWS KITS\8.1\BIN\X64\RC.EXE
C:\PROGRAM FILES (X86)\MICROSOFT VISUAL STUDIO 12.0\VC\BIN\AMD64\CVTRES.EXE
C:\CYGWIN\HOME\CLAUS\HPC\SRC\SCALEWIN\DEBUG\SCALE1.PDB
C:\CYGWIN\HOME\CLAUS\HPC\SRC\SCALEWIN\DEBUG\SCALE1.EXE
C:\CYGWIN\HOME\CLAUS\HPC\SRC\SCALEWIN\DEBUG\VC120.PDB
C:\WINDOWS\SYSTEM32\RSAENH.DLL
