#FIG 3.2  Produced by hwloc's lstopo
Landscape
Center
Inches
letter
100.00
Single
-2
1200 2
0 32 #d2e7a4
0 33 #dedede
0 34 #efdfde
0 35 #bebebe
0 36 #00ff00
0 37 #ff0000
0 38 #e7ffb5
0 39 #bed295
2 2 0 1 0 7 100 -1 20 0.0 0 0 -1 0 0 5
	 0 0 5200 0 5200 8000 0 8000 0 0
4 0 0 99 -1 0 16 0.0 4 160 3520 200 360 Machine (4965MB total)\001
2 2 0 1 0 32 99 -1 20 0.0 0 0 -1 0 0 5
	 200 600 5000 600 5000 7800 200 7800 200 600
2 2 0 1 0 34 98 -1 20 0.0 0 0 -1 0 0 5
	 400 800 4800 800 4800 1400 400 1400 400 800
4 0 0 97 -1 0 16 0.0 4 160 3360 600 1160 NUMANode P#0 (4965MB)\001
2 2 0 1 0 33 98 -1 20 0.0 0 0 -1 0 0 5
	 400 1600 4800 1600 4800 7600 400 7600 400 1600
4 0 0 97 -1 0 16 0.0 4 160 1760 600 1960 Package P#0\001
2 2 0 1 0 7 97 -1 20 0.0 0 0 -1 0 0 5
	 600 2200 4600 2200 4600 2800 600 2800 600 2200
4 0 0 96 -1 0 16 0.0 4 160 1760 800 2560 L3 (4096KB)\001
2 2 0 1 0 7 96 -1 20 0.0 0 0 -1 0 0 5
	 600 3000 2500 3000 2500 3600 600 3600 600 3000
4 0 0 95 -1 0 16 0.0 4 160 1600 800 3360 L2 (256KB)\001
2 2 0 1 0 7 95 -1 20 0.0 0 0 -1 0 0 5
	 600 3800 2500 3800 2500 4400 600 4400 600 3800
4 0 0 94 -1 0 16 0.0 4 160 1600 800 4160 L1d (32KB)\001
2 2 0 1 0 7 94 -1 20 0.0 0 0 -1 0 0 5
	 600 4600 2500 4600 2500 5200 600 5200 600 4600
4 0 0 93 -1 0 16 0.0 4 160 1600 800 4960 L1i (32KB)\001
2 2 0 1 0 35 93 -1 20 0.0 0 0 -1 0 0 5
	 600 5400 2300 5400 2300 7400 600 7400 600 5400
4 0 0 92 -1 0 16 0.0 4 160 640 800 5760 Core\001
2 2 0 1 0 7 92 -1 20 0.0 0 0 -1 0 0 5
	 800 6000 2100 6000 2100 6600 800 6600 800 6000
4 0 0 91 -1 0 16 0.0 4 160 960 1000 6360 PU P#0\001
2 2 0 1 0 7 92 -1 20 0.0 0 0 -1 0 0 5
	 800 6600 2100 6600 2100 7200 800 7200 800 6600
4 0 0 91 -1 0 16 0.0 4 160 960 1000 6960 PU P#1\001
2 2 0 1 0 7 96 -1 20 0.0 0 0 -1 0 0 5
	 2700 3000 4600 3000 4600 3600 2700 3600 2700 3000
4 0 0 95 -1 0 16 0.0 4 160 1600 2900 3360 L2 (256KB)\001
2 2 0 1 0 7 95 -1 20 0.0 0 0 -1 0 0 5
	 2700 3800 4600 3800 4600 4400 2700 4400 2700 3800
4 0 0 94 -1 0 16 0.0 4 160 1600 2900 4160 L1d (32KB)\001
2 2 0 1 0 7 94 -1 20 0.0 0 0 -1 0 0 5
	 2700 4600 4600 4600 4600 5200 2700 5200 2700 4600
4 0 0 93 -1 0 16 0.0 4 160 1600 2900 4960 L1i (32KB)\001
2 2 0 1 0 35 93 -1 20 0.0 0 0 -1 0 0 5
	 2700 5400 4400 5400 4400 7400 2700 7400 2700 5400
4 0 0 92 -1 0 16 0.0 4 160 640 2900 5760 Core\001
2 2 0 1 0 7 92 -1 20 0.0 0 0 -1 0 0 5
	 2900 6000 4200 6000 4200 6600 2900 6600 2900 6000
4 0 0 91 -1 0 16 0.0 4 160 960 3100 6360 PU P#2\001
2 2 0 1 0 7 92 -1 20 0.0 0 0 -1 0 0 5
	 2900 6600 4200 6600 4200 7200 2900 7200 2900 6600
4 0 0 91 -1 0 16 0.0 4 160 960 3100 6960 PU P#3\001
2 2 0 1 0 7 100 -1 20 0.0 0 0 -1 0 0 5
	 0 8000 5200 8000 5200 9400 0 9400 0 8000
4 0 0 100 -1 0 16 0.0 4 160 2240 200 8360 Host: TECRAZ50\001
4 0 0 100 -1 0 16 0.0 4 160 2720 200 8760 Indexes: physical\001
4 0 0 100 -1 0 16 0.0 4 160 6080 200 9160 Date: sáb, 29 de ago de 2015 12:11:42\001
