some_loops1.f90:11:0: note: loop vectorized
some_loops1.f90:1:0: note: basic block vectorized
some_loops2.f90:11:0: note: loop vectorized
some_loops2.f90:1:0: note: basic block vectorized
some_loops2.f90:21:0: note: basic block vectorized
some_loops1.f90:11:0: note: loop vectorized
some_loops1.f90:1:0: note: basic block vectorized
some_loops2.f90:11:0: note: loop vectorized
some_loops2.f90:1:0: note: basic block vectorized
some_loops2.f90:21:0: note: basic block vectorized
