^C:\CYGWIN\HOME\CLAUS\HPC\SRC\SCALEWIN\ITERATE1.C
/c /Qm32 /Zi /nologo /W3 /O2 /D __INTEL_COMPILER=1700 /D WIN32 /D NDEBUG /D _CONSOLE /EHsc /MD /GS /Zc:wchar_t /Zc:forScope /Qrestrict /Fo"RELEASE\\" /Fd"RELEASE\VC120.PDB" /Qopt-report:2 /Qopt-report-format:vs /Gd /TC C:\CYGWIN\HOME\CLAUS\HPC\SRC\SCALEWIN\ITERATE1.C
^C:\CYGWIN\HOME\CLAUS\HPC\SRC\SCALEWIN\SCALE1.C
/c /Qm32 /Zi /nologo /W3 /O2 /D __INTEL_COMPILER=1700 /D WIN32 /D NDEBUG /D _CONSOLE /EHsc /MD /GS /Zc:wchar_t /Zc:forScope /Qrestrict /Fo"RELEASE\\" /Fd"RELEASE\VC120.PDB" /Qopt-report:2 /Qopt-report-format:vs /Gd /TC C:\CYGWIN\HOME\CLAUS\HPC\SRC\SCALEWIN\SCALE1.C
