Loop Time(sec) Loop Time(sec)
s000 3.632 s000 0.570
s111 1.783 s111 1.469
s1111 2.327 s1111 1.799
s112 5.347 s112 0.746
s1112 5.348 s1112 0.888
s113 7.129 s113 1.024
s1113 3.565 s1113 3.667
s114 1.700 s114 1.767
s115 11.109 s115 11.430
s1115 1.845 s1115 1.939
s116 9.847 s116 9.846
s118 3.052 s118 3.081
s119 2.930 s119 0.547
s1119 1.978 s1119 0.450
s121 5.347 s121 0.853
s122 1.783 s122 1.833
s123 1.785 s123 1.836
s124 2.015 s124 0.490
s125 1.554 s125 0.615
s126 0.733 s126 0.728
s127 2.675 s127 0.697
s128 2.681 s128 1.778
s131 8.912 s131 1.427
s132 5.917 s132 0.560
s141 2.114 s141 2.175
s151 5.633 s151 1.442
s152 2.618 s152 2.698
s161 1.260 s161 1.262
s1161 1.783 s1161 1.834
s162 1.782 s162 1.834
s171 1.785 s171 1.833
s172 1.783 s172 1.375
s173 8.914 s173 1.637
s174 8.917 s174 1.640
s175 2.229 s175 2.291
s176 1.102 s176 0.293
s211 2.615 s211 2.691
s212 2.165 s212 2.227
s1213 2.555 s1213 2.618
s221 3.562 s221 3.663
s1221 2.075 s1221 0.914
s222 1.780 s222 1.831
s231 6.406 s231 0.459
s232 1.233 s232 1.267
s1232 3.272 s1232 3.393
s233 13.540 s233 13.876
s2233 7.354 s2233 6.948
s235 12.820 s235 0.931
s241 5.499 s241 5.262
s242 2.138 s242 2.198
s243 2.673 s243 2.620
s244 2.898 s244 2.978
s1244 2.752 s1244 2.700
s2244 2.609 s2244 0.748
s251 7.129 s251 1.680
s1251 10.542 s1251 2.324
s2251 2.691 s2251 2.690
s3251 3.737 s3251 1.380
s252 1.835 s252 1.834
s253 2.287 s253 2.515
s254 7.189 s254 7.334
s255 2.062 s255 2.063
s256 1.226 s256 1.268
s257 0.727 s257 0.725
s258 0.022 s258 0.023
s261 2.509 s261 2.409
s271 7.142 s271 7.343
s272 2.674 s272 1.834
s273 2.995 s273 3.665
s274 2.639 s274 2.718
s275 0.658 s275 0.689
s2275 7.367 s2275 0.493
s276 8.328 s276 1.625
s277 1.783 s277 1.834
s278 2.899 s278 2.979
s279 1.448 s279 1.490
s1279 1.783 s1279 1.834
s2710 1.365 s2710 1.410
s2711 7.141 s2711 7.341
s2712 7.168 s2712 7.368
s281 2.496 s281 2.570
s1281 11.066 s1281 2.327
s291 3.593 s291 3.668
s292 2.063 s292 2.066
s293 3.785 s293 7.334
s2101 0.383 s2101 0.390
s2102 6.417 s2102 6.596
s2111 12.363 s2111 12.728
s311 35.573 s311 2.242
s31111 1.572 s31111 1.607
s312 35.583 s312 2.243
s313 17.807 s313 1.135
s314 17.803 s314 1.121
s315 3.563 s315 3.665
s316 17.792 s316 1.126
s317 146.289 s317 0.547
s318 1.337 s318 0.918
s319 7.331 s319 1.184
s3110 2.207 s3110 1.534
s13110 2.265 s13110 1.535
s3111 1.780 s3111 0.113
s3112 3.561 s3112 3.664
s3113 14.245 s3113 0.905
s321 3.561 s321 3.663
s322 2.688 s322 2.768
s323 3.562 s323 3.664
s331 1.783 s331 1.834
s332 1.734 s332 1.735
s341 2.039 s341 2.096
s342 2.005 s342 2.062
s343 0.262 s343 0.283
s351 9.508 s351 2.011
s1351 14.254 s1351 2.697
s352 11.401 s352 11.728
s353 1.466 s353 1.499
s421 6.936 s421 1.140
s1421 5.058 s1421 1.450
s422 10.726 s422 14.668
s423 6.934 s423 1.049
s424 7.130 s424 1.088
s431 17.823 s431 2.512
s441 2.754 s441 3.035
s442 1.787 s442 1.879
s443 4.011 s443 0.797
s451 7.529 s451 7.698
s452 8.019 s452 1.327
s453 7.213 s453 0.542
s471 1.340 s471 0.394
s481 2.024 s481 2.751
s482 2.673 s482 2.063
s491 2.247 s491 2.309
s4112 1.783 s4112 0.928
s4113 1.873 s4113 1.926
s4114 2.155 s4114 1.017
s4115 3.562 s4115 0.966
s4116 2.703 s4116 0.822
s4117 2.231 s4117 0.738
s4121 1.782 s4121 0.323
va 3.354 va 3.450
vag 3.564 vag 1.870
vas 3.564 vas 3.666
vif 1.783 vif 0.256
vpv 17.827 vpv 2.503
vtv 11.272 vtv 2.496
vpvtv 7.131 vpvtv 1.286
vpvts 1.127 vpvts 0.250
vpvpv 7.334 vpvpv 1.267
vtvtv 7.346 vtvtv 1.256
vsumr 35.585 vsumr 2.243
vdotr 35.619 vdotr 2.271
vbor 0.777 vbor 0.053
