Loop 	Time(sec) 	Checksum
 s000	     0.642	512066944.000000
 s111	     1.545	32000.410156
s1111	     0.663	16005.822266
 s112	     4.117	84644.898438
s1112	     0.852	32001.640625
 s113	     1.154	32000.640625
s1113	     2.600	32001.640625
 s114	     1.540	919.869873
 s115	     1.247	31745.953125
s1115	     1.649	0.065485
 s116	     2.535	32000.000000
 s118	     1.598	85029.156250
 s119	     0.490	86343.289062
s1119	     2.069	119107.445312
 s121	     0.766	32009.023438
 s122	     1.626	196490.187500
 s123	     1.736	32003.283203
 s124	     0.591	32001.640625
 s125	     0.571	131072.000000
 s126	     0.688	66949.914062
 s127	     0.745	32003.283203
 s128	     1.169	80000.000000
 s131	     1.276	32009.023438
 s132	     0.808	65538.562500
 s141	     2.152	32454472.000000
 s151	     1.276	32009.023438
 s152	     0.927	152207.562500
 s161	     1.231	64002.054688
s1161	     0.543	64002.460938
 s162	     1.734	32009.023438
 s171	     1.734	196500.265625
 s172	     1.734	196500.265625
 s173	     1.629	32001.626953
 s174	     1.645	32001.626953
 s175	     1.734	32009.023438
 s176	     0.238	32097.964844
 s211	     0.849	63983.308594
 s212	     0.617	132018.859375
s1213	     0.531	132016.171875
 s221	     1.922	1543714048.000000
s1221	     1.137	630439296.000000
 s222	     2.163	32000.000000
 s231	     1.035	119107.445312
 s232	     1.209	65536.000000
s1232	     3.229	33956.261719
 s233	     2.838	504920.187500
s2233	     0.548	337652.718750
 s235	     0.471	160024.046875
 s241	     1.612	64000.000000
 s242	     2.252	1535966208.000000
 s243	     0.921	810659.437500
 s244	     2.896	70110.828125
s1244	     0.967	108527.601562
s2244	     0.961	70110.859375
 s251	     1.695	32004.367188
s1251	     2.683	400005.843750
s2251	     2.116	2.635389
s3251	     1.128	12.595580
 s252	     1.391	63999.000000
 s253	     0.599	3200845824.000000
 s254	     1.142	32000.000000
 s255	     1.517	31953.501953
 s256	     1.247	66205.382812
 s257	     0.677	163072.000000
 s258	     0.023	14.652780
 s261	     0.628	261013.984375
 s271	     1.452	689788.562500
 s272	     0.650	64000.000000
 s273	     0.763	99055.859375
 s274	     0.931	3201031680.000000
 s275	     0.031	65536.000000
s2275	     0.304	65536.000000
 s276	     1.986	689788.562500
 s277	     1.735	32000.000000
 s278	     0.775	64012.589844
 s279	     0.437	64014.289062
s1279	     0.709	64014.289062
s2710	     0.440	96003.281250
s2711	     1.454	689788.562500
s2712	     1.452	289747.562500
 s281	     2.436	32000.000000
s1281	     2.674	inf
 s291	     0.572	32000.000000
 s292	     0.503	31953.501953
 s293	     3.688	32000.000000
s2101	     0.379	1704092.000000
s2102	     0.156	256.000000
s2111	    18.648	34544940.000000
 s311	     1.254	10.950721
s31111	     1.035	10.950721
 s312	     4.286	1.030928
 s313	     1.223	1.644898
 s314	     2.143	1.000000
 s315	     0.433	54857.000000
 s316	     2.155	0.000031
 s317	     1.058	0.000000
 s318	     0.434	32002.000000
 s319	     1.873	43.802910
s3110	     1.458	514.000000
s13110	     2.125	514.000000
s3111	     0.066	10.950722
s3112	     3.465	1.644725
s3113	     1.727	2.000000
 s321	     3.464	32000.000000
 s322	     2.608	32000.000000
 s323	     3.465	146472.437500
 s331	     0.217	32000.000000
 s332	     1.369	-1.000000
 s341	     0.529	10.950721
 s342	     1.517	10.950721
 s343	     0.261	1567.932129
 s351	     2.029	25606707200.000000
s1351	     2.715	32008.869141
 s352	     4.324	1.644895
 s353	     1.734	3200838400.000000
 s421	     1.031	32009.023438
s1421	     1.316	16000.000000
 s422	     2.657	257.660736
 s423	     1.332	439.621765
 s424	     1.137	822.364014
 s431	     2.535	1674287.625000
 s441	     0.644	196500.265625
 s442	     0.505	114244.632812
 s443	     0.989	361034.031250
 s451	     0.660	32007.896484
 s452	     1.354	32511.939453
 s453	     0.569	21.901442
 s471	     0.492	64004.925781
 s481	     2.565	196500.265625
 s482	     2.270	196500.265625
 s491	     1.567	32001.640625
s4112	     0.866	1127128.875000
s4113	     1.836	32001.640625
s4114	     0.413	32000.000000
s4115	     0.916	1.038806
s4116	     0.766	0.753265
s4117	     1.735	32002.205078
s4121	     0.365	196500.265625
   va	     2.408	1.644725
  vag	     2.672	1.644725
  vas	     2.812	1.644725
  vif	     0.278	1.644725
  vpv	     2.535	1642244.625000
  vtv	     2.534	32000.000000
vpvtv	     1.451	689788.562500
vpvts	     0.255	175234766340096.000000
vpvpv	     1.451	1.644725
vtvtv	     1.456	32000.000000
vsumr	     1.251	10.950722
vdotr	     2.441	1.644898
 vbor	     0.140	31924.046875
